Example Model: Phenobarbatol with correlations
…
#>                          Parameter  Est.     SE %RSE
#> tcl     typical value of clearance    -5  0.075  1.5
#> tv         typical value of volume 0.347 0.0536 15.4
#> add.err       residual variability  2.84            
#>           Back-transformed(95%CI) BSV(CV%) Shrink(SD)%
#> tcl     0.00674 (0.00582, 0.0078)     52.8      1.68% 
#> tv              1.42 (1.27, 1.57)     40.8      1.18% 
#> add.err                      2.84                      
#> 
#>   Covariance Type ($covMethod): linFim
#>   Correlations in between subject variability (BSV) matrix:
#>     cor__eta.v.eta.cl 
#>              0.986   
#> 
#> # A tibble: 155 x 16
#>   ID     TIME    DV  EVID  PRED    RES IPRED  IRES  IWRES  eta.cl   eta.v
#>   <fct> <dbl> <dbl> <int> <dbl>  <dbl> <dbl> <dbl>  <dbl>   <dbl>   <dbl>
#> 1 1        2   17.3     0  17.5 -0.198  18.4 -1.13 -0.397 -0.0731 -0.0516
#> 2 1      112.  31       0  27.9  3.08   29.6  1.39  0.489 -0.0731 -0.0516
#> 3 2        2    9.7     0  10.5 -0.799  12.5 -2.76 -0.973 -0.215  -0.171 
#> #  with 152 more rows, and 5 more variables: cl <dbl>, v <dbl>, ke <dbl>,
#> #   cp <dbl>, A1 <dbl>
…
