Modifying nlmixr models by piping
…
#> 
#>   Covariance Type ($covMethod): r,s
#>   No correlations in between subject variability (BSV) matrix
#>   Full BSV covariance ($omega) or correlation ($omegaR; diagonals=SDs)
#>   Distribution stats (mean/skewness/kurtosis/p-value) available in $shrink
#>   Minimization message ($message):
#>     false convergence (8)
#>   In an ODE system, false convergence may mean "useless" evaluations were performed.
#>   See https://stackoverflow.com/questions/40039114/r-nlminb-what-does-false-convergence-actually-mean
#>   It could also mean the convergence is poor, check results before accepting fit
#>   You may also try a good derivative free optimization:
#>     nlmixr(...,control=list(outerOpt="bobyqa"))
#> 
#> ── Fit Data (object is a modified tibble): ────────────────────────────────
#> # A tibble: 132 x 22
#>   ID     TIME    DV  EVID  PRED    RES   WRES IPRED   IRES  IWRES CPRED
#>   <fct> <dbl> <dbl> <int> <dbl>  <dbl>  <dbl> <dbl>  <dbl>  <dbl> <dbl>
#> 1 1     0      0.74     0  0     0.74   0.391  0     0.74   1.07   0   
#> 2 1     0.25   2.84     0  3.27 -0.433 -0.229  3.85 -1.01  -1.45   3.23
#> 3 1     0.570  6.57     0  5.84  0.727  0.384  6.79 -0.215 -0.310  5.79
#> # … with 129 more rows, and 11 more variables: CRES <dbl>, CWRES <dbl>,
#> #   eta.ka <dbl>, eta.cl <dbl>, eta.v <dbl>, ka <dbl>, cl <dbl>, v <dbl>,
#> #   cp <dbl>, depot <dbl>, center <dbl>
…
#> 
#>   Covariance Type ($covMethod): r,s
#>   No correlations in between subject variability (BSV) matrix
#>   Full BSV covariance ($omega) or correlation ($omegaR; diagonals=SDs)
#>   Distribution stats (mean/skewness/kurtosis/p-value) available in $shrink
#>   Minimization message ($message):
#>     false convergence (8)
#>   In an ODE system, false convergence may mean "useless" evaluations were performed.
#>   See https://stackoverflow.com/questions/40039114/r-nlminb-what-does-false-convergence-actually-mean
#>   It could also mean the convergence is poor, check results before accepting fit
#>   You may also try a good derivative free optimization:
#>     nlmixr(...,control=list(outerOpt="bobyqa"))
#> 
#> ── Fit Data (object is a modified tibble): ────────────────────────────────
#> # A tibble: 132 x 22
#>   ID     TIME    DV  EVID  PRED    RES   WRES IPRED   IRES  IWRES CPRED
#>   <fct> <dbl> <dbl> <int> <dbl>  <dbl>  <dbl> <dbl>  <dbl>  <dbl> <dbl>
#> 1 1     0      0.74     0  0     0.74   0.391  0     0.74   1.07   0   
#> 2 1     0.25   2.84     0  3.36 -0.517 -0.273  3.85 -1.01  -1.45   3.33
#> 3 1     0.570  6.57     0  5.95  0.616  0.325  6.79 -0.219 -0.315  5.91
#> # … with 129 more rows, and 11 more variables: CRES <dbl>, CWRES <dbl>,
#> #   eta.ka <dbl>, eta.cl <dbl>, eta.v <dbl>, ka <dbl>, cl <dbl>, v <dbl>,
#> #   cp <dbl>, depot <dbl>, center <dbl>
…
#> 
#>   Covariance Type ($covMethod): r,s
#>   No correlations in between subject variability (BSV) matrix
#>   Full BSV covariance ($omega) or correlation ($omegaR; diagonals=SDs)
#>   Distribution stats (mean/skewness/kurtosis/p-value) available in $shrink
#>   Minimization message ($message):
#>     false convergence (8)
#>   In an ODE system, false convergence may mean "useless" evaluations were performed.
#>   See https://stackoverflow.com/questions/40039114/r-nlminb-what-does-false-convergence-actually-mean
#>   It could also mean the convergence is poor, check results before accepting fit
#>   You may also try a good derivative free optimization:
#>     nlmixr(...,control=list(outerOpt="bobyqa"))
#> 
#> ── Fit Data (object is a modified tibble): ────────────────────────────────
#> # A tibble: 132 x 22
#>   ID     TIME    DV  EVID  PRED    RES   WRES IPRED   IRES  IWRES CPRED
#>   <fct> <dbl> <dbl> <int> <dbl>  <dbl>  <dbl> <dbl>  <dbl>  <dbl> <dbl>
#> 1 1     0      0.74     0  0     0.74   0.391  0     0.74   1.07   0   
#> 2 1     0.25   2.84     0  3.27 -0.433 -0.229  3.85 -1.01  -1.45   3.23
#> 3 1     0.570  6.57     0  5.84  0.727  0.384  6.79 -0.216 -0.310  5.79
#> # … with 129 more rows, and 11 more variables: CRES <dbl>, CWRES <dbl>,
#> #   eta.ka <dbl>, eta.cl <dbl>, eta.v <dbl>, ka <dbl>, cl <dbl>, v <dbl>,
#> #   cp <dbl>, depot <dbl>, center <dbl>
…
#> 
#>   Covariance Type ($covMethod): r,s
#>   No correlations in between subject variability (BSV) matrix
#>   Full BSV covariance ($omega) or correlation ($omegaR; diagonals=SDs)
#>   Distribution stats (mean/skewness/kurtosis/p-value) available in $shrink
#>   Minimization message ($message):
#>     false convergence (8)
#>   In an ODE system, false convergence may mean "useless" evaluations were performed.
#>   See https://stackoverflow.com/questions/40039114/r-nlminb-what-does-false-convergence-actually-mean
#>   It could also mean the convergence is poor, check results before accepting fit
#>   You may also try a good derivative free optimization:
#>     nlmixr(...,control=list(outerOpt="bobyqa"))
#> 
#> ── Fit Data (object is a modified tibble): ────────────────────────────────
#> # A tibble: 132 x 22
#>   ID     TIME    DV  EVID  PRED    RES   WRES IPRED   IRES  IWRES CPRED
#>   <fct> <dbl> <dbl> <int> <dbl>  <dbl>  <dbl> <dbl>  <dbl>  <dbl> <dbl>
#> 1 1     0      0.74     0  0     0.74   0.391  0     0.74   1.07   0   
#> 2 1     0.25   2.84     0  3.25 -0.413 -0.218  3.84 -1.00  -1.45   3.21
#> 3 1     0.570  6.57     0  5.82  0.752  0.397  6.78 -0.214 -0.308  5.76
#> # … with 129 more rows, and 11 more variables: CRES <dbl>, CWRES <dbl>,
#> #   eta.ka <dbl>, eta.cl <dbl>, eta.v <dbl>, ka <dbl>, cl <dbl>, v <dbl>,
#> #   cp <dbl>, depot <dbl>, center <dbl>
…
#> 
#>   Covariance Type ($covMethod): r,s
#>   No correlations in between subject variability (BSV) matrix
#>   Full BSV covariance ($omega) or correlation ($omegaR; diagonals=SDs)
#>   Distribution stats (mean/skewness/kurtosis/p-value) available in $shrink
#>   Minimization message ($message):
#>     false convergence (8)
#>   In an ODE system, false convergence may mean "useless" evaluations were performed.
#>   See https://stackoverflow.com/questions/40039114/r-nlminb-what-does-false-convergence-actually-mean
#>   It could also mean the convergence is poor, check results before accepting fit
#>   You may also try a good derivative free optimization:
#>     nlmixr(...,control=list(outerOpt="bobyqa"))
#> 
#> ── Fit Data (object is a modified tibble): ────────────────────────────────
#> # A tibble: 132 x 21
#>   ID     TIME    DV  EVID  PRED    RES   WRES IPRED   IRES  IWRES CPRED
#>   <fct> <dbl> <dbl> <int> <dbl>  <dbl>  <dbl> <dbl>  <dbl>  <dbl> <dbl>
#> 1 1     0      0.74     0  0     0.74   0.709  0     0.74   0.725  0   
#> 2 1     0.25   2.84     0  3.12 -0.280 -0.268  3.57 -0.732 -0.717  3.09
#> 3 1     0.570  6.57     0  5.61  0.957  0.917  6.45  0.120  0.117  5.56
#> # … with 129 more rows, and 10 more variables: CRES <dbl>, CWRES <dbl>,
#> #   eta.cl <dbl>, eta.v <dbl>, ka <dbl>, cl <dbl>, v <dbl>, cp <dbl>,
#> #   depot <dbl>, center <dbl>
…
#> 
#>   Covariance Type ($covMethod): r,s
#>   No correlations in between subject variability (BSV) matrix
#>   Full BSV covariance ($omega) or correlation ($omegaR; diagonals=SDs)
#>   Distribution stats (mean/skewness/kurtosis/p-value) available in $shrink
#>   Minimization message ($message):
#>     false convergence (8)
#>   In an ODE system, false convergence may mean "useless" evaluations were performed.
#>   See https://stackoverflow.com/questions/40039114/r-nlminb-what-does-false-convergence-actually-mean
#>   It could also mean the convergence is poor, check results before accepting fit
#>   You may also try a good derivative free optimization:
#>     nlmixr(...,control=list(outerOpt="bobyqa"))
#> 
#> ── Fit Data (object is a modified tibble): ────────────────────────────────
#> # A tibble: 132 x 22
#>   ID     TIME    DV  EVID  PRED    RES   WRES IPRED   IRES  IWRES CPRED
#>   <fct> <dbl> <dbl> <int> <dbl>  <dbl>  <dbl> <dbl>  <dbl>  <dbl> <dbl>
#> 1 1     0      0.74     0  0     0.74   0.375  0     0.74   1.07   0   
#> 2 1     0.25   2.84     0  3.29 -0.449 -0.227  3.85 -1.01  -1.45   3.25
#> 3 1     0.570  6.57     0  5.86  0.705  0.357  6.79 -0.216 -0.312  5.81
#> # … with 129 more rows, and 11 more variables: CRES <dbl>, CWRES <dbl>,
#> #   eta.cl <dbl>, eta.v <dbl>, bsv.ka <dbl>, ka <dbl>, cl <dbl>, v <dbl>,
#> #   cp <dbl>, depot <dbl>, center <dbl>
…
#> 
#>   Covariance Type ($covMethod): r,s
#>   No correlations in between subject variability (BSV) matrix
#>   Full BSV covariance ($omega) or correlation ($omegaR; diagonals=SDs)
#>   Distribution stats (mean/skewness/kurtosis/p-value) available in $shrink
#>   Minimization message ($message):
#>     false convergence (8)
#>   In an ODE system, false convergence may mean "useless" evaluations were performed.
#>   See https://stackoverflow.com/questions/40039114/r-nlminb-what-does-false-convergence-actually-mean
#>   It could also mean the convergence is poor, check results before accepting fit
#>   You may also try a good derivative free optimization:
#>     nlmixr(...,control=list(outerOpt="bobyqa"))
#> 
#> ── Fit Data (object is a modified tibble): ────────────────────────────────
#> # A tibble: 132 x 23
#>   ID     TIME    DV  EVID    WT  PRED    RES   WRES IPRED   IRES  IWRES
#>   <fct> <dbl> <dbl> <int> <dbl> <dbl>  <dbl>  <dbl> <dbl>  <dbl>  <dbl>
#> 1 1     0      0.74     0  79.6  0     0.74   0.391  0     0.74   1.06 
#> 2 1     0.25   2.84     0  79.6  3.28 -0.443 -0.234  3.84 -0.999 -1.44 
#> 3 1     0.570  6.57     0  79.6  5.85  0.722  0.381  6.78 -0.212 -0.305
#> # … with 129 more rows, and 12 more variables: CPRED <dbl>, CRES <dbl>,
#> #   CWRES <dbl>, eta.ka <dbl>, eta.cl <dbl>, eta.v <dbl>, ka <dbl>,
#> #   cl <dbl>, v <dbl>, cp <dbl>, depot <dbl>, center <dbl>
…
#> 
#>   Covariance Type ($covMethod): r,s
#>   No correlations in between subject variability (BSV) matrix
#>   Full BSV covariance ($omega) or correlation ($omegaR; diagonals=SDs)
#>   Distribution stats (mean/skewness/kurtosis/p-value) available in $shrink
#>   Minimization message ($message):
#>     false convergence (8)
#>   In an ODE system, false convergence may mean "useless" evaluations were performed.
#>   See https://stackoverflow.com/questions/40039114/r-nlminb-what-does-false-convergence-actually-mean
#>   It could also mean the convergence is poor, check results before accepting fit
#>   You may also try a good derivative free optimization:
#>     nlmixr(...,control=list(outerOpt="bobyqa"))
#> 
#> ── Fit Data (object is a modified tibble): ────────────────────────────────
#> # A tibble: 132 x 22
#>   ID     TIME    DV  EVID  PRED    RES   WRES IPRED   IRES  IWRES CPRED
#>   <fct> <dbl> <dbl> <int> <dbl>  <dbl>  <dbl> <dbl>  <dbl>  <dbl> <dbl>
#> 1 1     0      0.74     0  0     0.74   0.396  0     0.74   2.69   0   
#> 2 1     0.25   2.84     0  3.05 -0.214 -0.114  3.46 -0.624 -1.16   3.03
#> 3 1     0.570  6.57     0  5.54  1.03   0.541  6.23  0.337  0.383  5.51
#> # … with 129 more rows, and 11 more variables: CRES <dbl>, CWRES <dbl>,
#> #   eta.ka <dbl>, eta.cl <dbl>, eta.v <dbl>, ka <dbl>, cl <dbl>, v <dbl>,
#> #   cp <dbl>, depot <dbl>, center <dbl>
