Working with multiple endpoints
…
#> prop.err             
#> pkadd.err            
#> poplogit       84.7% 
#> tec50          6.07% 
#> tkout          43.4% 
#> te0            20.0% 
#> pdadd.err             
#> 
#>   Covariance Type ($covMethod): linFim
#>   No correlations in between subject variability (BSV) matrix
#>   Full BSV covariance ($omega) or correlation ($omegaR; diagonals=SDs) 
#>   Distribution stats (mean/skewness/kurtosis/p-value) available in $shrink 
#> 
#> ── Fit Data (object is a modified tibble): ──────────────────────────────── 
#> # A tibble: 483 x 35
#>   ID     TIME    DV  EVID CMT    PRED   RES IPRED   IRES IWRES eta.ktr
#>   <fct> <dbl> <dbl> <int> <fct> <dbl> <dbl> <dbl>  <dbl> <dbl>   <dbl>
#> 1 1       0.5   0       0 cp     1.50 -1.50 0.481 -0.481 -1.96  -0.738
#> 2 1       1     1.9     0 cp     4.16 -2.26 1.56   0.336  1.12  -0.738
#> 3 1       2     3.3     0 cp     8.57 -5.27 4.19  -0.893 -1.65  -0.738
#> # … with 480 more rows, and 24 more variables: eta.ka <dbl>, eta.cl <dbl>,
#> #   eta.v <dbl>, eta.emax <dbl>, eta.ec50 <dbl>, eta.kout <dbl>,
#> #   eta.e0 <dbl>, ktr <dbl>, ka <dbl>, cl <dbl>, v <dbl>, logit <dbl>,
#> #   emax <dbl>, ec50 <dbl>, kout <dbl>, e0 <dbl>, DCP <dbl>, PD <dbl>,
#> #   kin <dbl>, cp <dbl>, depot <dbl>, gut <dbl>, center <dbl>,
#> #   effect <dbl>
…
