Configure an SAEM model — configsaem • nlmixr
…
#>  
#>   Covariance Type ($covMethod): linFim
#>   Some strong fixed parameter correlations exist ($cor) :
#>        cor:tcl,tka     cor:tv,tka cor:wt.est,tka     cor:tv,tcl cor:wt.est,tcl 
#>       -0.0542          0.0174       -0.000404         -0.0261         0.00832   
#>  cor:wt.est,tv 
#>        -0.991  
#>  
#> 
#>   No correlations in between subject variability (BSV) matrix
#>   Full BSV covariance ($omega) or correlation ($omegaR; diagonals=SDs) 
#>   Distribution stats (mean/skewness/kurtosis/p-value) available in $shrink 
#> 
#> ── Fit Data (object is a modified tibble): ─────────────────────────────────────
#> # A tibble: 132 × 20
#>   ID     TIME    DV  PRED    RES IPRED   IRES  IWRES eta.ka eta.cl  eta.v    cp
#>   <fct> <dbl> <dbl> <dbl>  <dbl> <dbl>  <dbl>  <dbl>  <dbl>  <dbl>  <dbl> <dbl>
#> 1 1      0     0.74  0     0.74   0     0.74   1.07   0.120 -0.498 -0.150  0   
#> 2 1      0.25  2.84  3.02 -0.179  3.87 -1.03  -1.50   0.120 -0.498 -0.150  3.87
#> 3 1      0.57  6.57  5.41  1.16   6.80 -0.229 -0.332  0.120 -0.498 -0.150  6.80
#> # … with 129 more rows, and 8 more variables: depot <dbl>, center <dbl>,
#> #   ka <dbl>, cl <dbl>, v <dbl>, tad <dbl>, dosenum <dbl>, WT <dbl>
…
