Stepwise Covariate Model-selection (SCM) method — covarSearchAuto • nlmixr
…
#>  
#>   Covariance Type ($covMethod): r,s
#>   Some strong fixed parameter correlations exist ($cor) :
#>     cor:tcl,tka  cor:tv,tka  cor:tv,tcl 
#>      0.158        0.422       0.744  
#>  
#> 
#>   No correlations in between subject variability (BSV) matrix
#>   Full BSV covariance ($omega) or correlation ($omegaR; diagonals=SDs) 
#>   Distribution stats (mean/skewness/kurtosis/p-value) available in $shrink 
#>   Minimization message ($message):  
#>     relative convergence (4) 
#> 
#> ── Fit Data (object is a modified tibble): ─────────────────────────────────────
#> # A tibble: 132 × 20
#>   ID     TIME    DV     PRED    RES   WRES IPRED   IRES  IWRES     CPRED   CRES
#>   <fct> <dbl> <dbl>    <dbl>  <dbl>  <dbl> <dbl>  <dbl>  <dbl>     <dbl>  <dbl>
#> 1 1      0     0.74 1.79e-15  0.740  1.07   0     0.74   1.07  -5.61e-16  0.740
#> 2 1      0.25  2.84 3.26e+ 0 -0.423 -0.225  3.85 -1.01  -1.45   3.22e+ 0 -0.379
#> 3 1      0.57  6.57 5.83e+ 0  0.740  0.297  6.78 -0.215 -0.309  5.77e+ 0  0.795
#> # … with 129 more rows, and 9 more variables: CWRES <dbl>, eta.ka <dbl>,
#> #   eta.cl <dbl>, eta.v <dbl>, ka <dbl>, cl <dbl>, v <dbl>, tad <dbl>,
#> #   dosenum <dbl>
…
#>  
#>   Covariance Type ($covMethod): r,s
#>   Some strong fixed parameter correlations exist ($cor) :
#>     cor:tcl,tka  cor:tv,tka  cor:tv,tcl 
#>      0.158        0.422       0.744  
#>  
#> 
#>   No correlations in between subject variability (BSV) matrix
#>   Full BSV covariance ($omega) or correlation ($omegaR; diagonals=SDs) 
#>   Distribution stats (mean/skewness/kurtosis/p-value) available in $shrink 
#>   Minimization message ($message):  
#>     relative convergence (4) 
#> 
#> ── Fit Data (object is a modified tibble): ─────────────────────────────────────
#> # A tibble: 132 × 20
#>   ID     TIME    DV     PRED    RES   WRES IPRED   IRES  IWRES     CPRED   CRES
#>   <fct> <dbl> <dbl>    <dbl>  <dbl>  <dbl> <dbl>  <dbl>  <dbl>     <dbl>  <dbl>
#> 1 1      0     0.74 1.79e-15  0.740  1.07   0     0.74   1.07  -5.61e-16  0.740
#> 2 1      0.25  2.84 3.26e+ 0 -0.423 -0.225  3.85 -1.01  -1.45   3.22e+ 0 -0.379
#> 3 1      0.57  6.57 5.83e+ 0  0.740  0.297  6.78 -0.215 -0.309  5.77e+ 0  0.795
#> # … with 129 more rows, and 9 more variables: CWRES <dbl>, eta.ka <dbl>,
#> #   eta.cl <dbl>, eta.v <dbl>, ka <dbl>, cl <dbl>, v <dbl>, tad <dbl>,
#> #   dosenum <dbl>
…
#>  
#>   Covariance Type ($covMethod): r,s
#>   Some strong fixed parameter correlations exist ($cor) :
#>     cor:tcl,tka  cor:tv,tka  cor:tv,tcl 
#>      0.158        0.422       0.744  
#>  
#> 
#>   No correlations in between subject variability (BSV) matrix
#>   Full BSV covariance ($omega) or correlation ($omegaR; diagonals=SDs) 
#>   Distribution stats (mean/skewness/kurtosis/p-value) available in $shrink 
#>   Minimization message ($message):  
#>     relative convergence (4) 
#> 
#> ── Fit Data (object is a modified tibble): ─────────────────────────────────────
#> # A tibble: 132 × 20
#>   ID     TIME    DV     PRED    RES   WRES IPRED   IRES  IWRES     CPRED   CRES
#>   <fct> <dbl> <dbl>    <dbl>  <dbl>  <dbl> <dbl>  <dbl>  <dbl>     <dbl>  <dbl>
#> 1 1      0     0.74 1.79e-15  0.740  1.07   0     0.74   1.07  -5.61e-16  0.740
#> 2 1      0.25  2.84 3.26e+ 0 -0.423 -0.225  3.85 -1.01  -1.45   3.22e+ 0 -0.379
#> 3 1      0.57  6.57 5.83e+ 0  0.740  0.297  6.78 -0.215 -0.309  5.77e+ 0  0.795
#> # … with 129 more rows, and 9 more variables: CWRES <dbl>, eta.ka <dbl>,
#> #   eta.cl <dbl>, eta.v <dbl>, ka <dbl>, cl <dbl>, v <dbl>, tad <dbl>,
#> #   dosenum <dbl>
…
