nlmixr fits population PK and PKPD non-linear mixed effects models. — nlmixr • nlmixr
…
   No correlations in between subject variability (BSV) matrix
   Full BSV covariance (fit.s$omega) or correlation (fit.s$omega.R; diagonals=SDs)
   Distribution stats (mean/skewness/kurtosis/p-value) available in fit.s$shrink

 -- Fit Data (object fit.s is a modified data.frame): ---------------------------
 # A tibble: 6,947 x 22
   ID     TIME    DV  PRED    RES    WRES IPRED  IRES  IWRES CPRED   CRES
 * <fct> <dbl> <dbl> <dbl>  <dbl>   <dbl> <dbl> <dbl>  <dbl> <dbl>  <dbl>
 1 1      0.25  205.  198.   6.60  0.0741  189.  16.2  0.434  198.   6.78
 2 1      0.5   311.  349. -38.7  -0.261   330. -19.0 -0.291  349. -38.3
 3 1      0.75  389.  464. -74.5  -0.398   434. -45.2 -0.526  463. -73.9
 # ... with 6,944 more rows, and 11 more variables: CWRES <dbl>, eta.Cl <dbl>,
 #   eta.Vc <dbl>, eta.KA <dbl>, depot <dbl>, centr <dbl>, Cl <dbl>, Vc <dbl>,
…
#> prop.err                  0.198                               0.198         
#>          Shrink(SD)%
#> lCl         0.0750% 
#> lVc          0.932% 
#> lKA           7.35% 
#> prop.err            
#>  
#>   Covariance Type ($covMethod): nlme
#>   Fixed parameter correlations in $cor
#>   No correlations in between subject variability (BSV) matrix
#>   Full BSV covariance ($omega) or correlation ($omegaR; diagonals=SDs) 
#>   Distribution stats (mean/skewness/kurtosis/p-value) available in $shrink 
#> 
#> ── Fit Data (object is a modified tibble): ─────────────────────────────────────
#> # A tibble: 6,960 × 24
#>   ID     EVID  TIME    DV  PRED    RES   WRES IPRED  IRES  IWRES CPRED   CRES
#>   <fct> <int> <dbl> <dbl> <dbl>  <dbl>  <dbl> <dbl> <dbl>  <dbl> <dbl>  <dbl>
#> 1 1         0  0.25  205.  196.   8.82  0.102  185.  19.8  0.541  196.   8.89
#> 2 1         0  0.5   311.  346. -35.3  -0.245  321. -10.6 -0.166  346. -35.2 
#> 3 1         0  0.75  389.  460. -70.9  -0.388  421. -31.7 -0.380  460. -70.5 
#> # … with 6,957 more rows, and 12 more variables: CWRES <dbl>, eta.Cl <dbl>,
#> #   eta.Vc <dbl>, eta.KA <dbl>, depot <dbl>, centr <dbl>, Cl <dbl>, Vc <dbl>,
#> #   KA <dbl>, kel <dbl>, tad <dbl>, dosenum <dbl>
…
#> lVc           1.42% 
#> lKA           6.27% 
#> prop.err            
#> add.err             
#>  
#>   Covariance Type ($covMethod): r,s
#>   Fixed parameter correlations in $cor
#>   No correlations in between subject variability (BSV) matrix
#>   Full BSV covariance ($omega) or correlation ($omegaR; diagonals=SDs) 
#>   Distribution stats (mean/skewness/kurtosis/p-value) available in $shrink 
#>   Minimization message ($message):  
#>     relative convergence (4) 
#> 
#> ── Fit Data (object is a modified tibble): ─────────────────────────────────────
#> # A tibble: 6,960 × 21
#>   ID     EVID  TIME    DV  PRED    RES    WRES IPRED  IRES  IWRES CPRED   CRES
#>   <fct> <int> <dbl> <dbl> <dbl>  <dbl>   <dbl> <dbl> <dbl>  <dbl> <dbl>  <dbl>
#> 1 1         0  0.25  205.  196.   8.64  0.0980  184.  20.6  0.566  196.   8.86
#> 2 1         0  0.5   311.  346. -35.6  -0.242   321. -10.2 -0.161  346. -35.1 
#> 3 1         0  0.75  389.  460. -71.1  -0.382   422. -32.4 -0.387  460. -70.3 
#> # … with 6,957 more rows, and 9 more variables: CWRES <dbl>, eta.Cl <dbl>,
#> #   eta.Vc <dbl>, eta.KA <dbl>, Cl <dbl>, Vc <dbl>, KA <dbl>, tad <dbl>,
#> #   dosenum <dbl>
…
#> prop.err                0.198                                   0.198         
#>          Shrink(SD)%
#> lCl         -0.393% 
#> lVc           1.29% 
#> lKA           4.36% 
#> prop.err            
#>  
#>   Covariance Type ($covMethod): linFim
#>   Fixed parameter correlations in $cor
#>   No correlations in between subject variability (BSV) matrix
#>   Full BSV covariance ($omega) or correlation ($omegaR; diagonals=SDs) 
#>   Distribution stats (mean/skewness/kurtosis/p-value) available in $shrink 
#> 
#> ── Fit Data (object is a modified tibble): ─────────────────────────────────────
#> # A tibble: 6,960 × 21
#>   ID     EVID  TIME    DV  PRED    RES IPRED   IRES   IWRES eta.Cl eta.Vc eta.KA
#>   <fct> <int> <dbl> <dbl> <dbl>  <dbl> <dbl>  <dbl>   <dbl>  <dbl>  <dbl>  <dbl>
#> 1 1         0  0.25  205.  197.   7.36  173.  31.5   0.919  0.0862  0.141 0.0121
#> 2 1         0  0.5   311.  348. -37.6   305.   5.25  0.0870 0.0862  0.141 0.0121
#> 3 1         0  0.75  389.  463. -73.4   405. -16.2  -0.202  0.0862  0.141 0.0121
#> # … with 6,957 more rows, and 9 more variables: cp <dbl>, depot <dbl>,
#> #   centr <dbl>, Cl <dbl>, Vc <dbl>, KA <dbl>, kel <dbl>, tad <dbl>,
#> #   dosenum <dbl>
…
