Using Broom with nlmixr • nlmixr
…
tidy(fit, effects="ran_pars")
#> # A tibble: 4 x 4
#>   effect   group         term               estimate
#>   <chr>    <chr>         <chr>                 <dbl>
#> 1 ran_pars ID            sd__eta.cl            0.496
#> 2 ran_pars ID            sd__eta.v             0.392
#> 3 ran_pars ID            cor__eta.v..eta.cl    0.986
#> 4 ran_pars Residual(add) add.err               2.84

Extracting random values (also called ETAs)

The random values, or in NONMEM the ETAs, can be extracted by effects="ran_vals" or effects="random"

tidy(fit, effects="ran_vals")
#> # A tibble: 118 x 5
#>    effect   group level term   estimate
#>    <chr>    <fct> <int> <fct>     <dbl>
#>  1 ran_vals ID        1 eta.cl  -0.0731
#>  2 ran_vals ID        2 eta.cl  -0.215 
#>  3 ran_vals ID        3 eta.cl   0.258 
#>  4 ran_vals ID        4 eta.cl  -0.540 
#>  5 ran_vals ID        5 eta.cl   0.320 
#>  6 ran_vals ID        6 eta.cl  -0.122 
#>  7 ran_vals ID        7 eta.cl  -0.315 
#>  8 ran_vals ID        8 eta.cl  -0.394 
#>  9 ran_vals ID        9 eta.cl  -0.254 
#> 10 ran_vals ID       10 eta.cl  -0.0227
#> # … with 108 more rows

This duplicate method of running effects is because the broom package supports effects="random" while the broom.mixed package supports effects="ran_vals".

Extracting random coefficients

Random coefficients are the population fixed effect parameter + the random effect parameter, possibly transformed to the correct scale.

In this case we can extract this information from a nlmixr fit object by:

tidy(fit, effects="ran_coef")
#> # A tibble: 118 x 5
#>    effect   group level term  estimate
#>    <chr>    <fct> <int> <fct>    <dbl>
#>  1 ran_coef ID        1 tcl    0.00626
#>  2 ran_coef ID        2 tcl    0.00543
#>  3 ran_coef ID        3 tcl    0.00872
#>  4 ran_coef ID        4 tcl    0.00392
#>  5 ran_coef ID        5 tcl    0.00928
#>  6 ran_coef ID        6 tcl    0.00596
#>  7 ran_coef ID        7 tcl    0.00492
#>  8 ran_coef ID        8 tcl    0.00454
#>  9 ran_coef ID        9 tcl    0.00523
#> 10 ran_coef ID       10 tcl    0.00659
#> # … with 108 more rows

This can also be changed by the exponentiate argument

tidy(fit, effects="ran_coef", exponentiate=FALSE)
#> # A tibble: 118 x 5
#>    effect   group level term  estimate
#>    <chr>    <fct> <int> <fct>    <dbl>
#>  1 ran_coef ID        1 tcl      -5.07
#>  2 ran_coef ID        2 tcl      -5.21
#>  3 ran_coef ID        3 tcl      -4.74
#>  4 ran_coef ID        4 tcl      -5.54
#>  5 ran_coef ID        5 tcl      -4.68
#>  6 ran_coef ID        6 tcl      -5.12
#>  7 ran_coef ID        7 tcl      -5.32
#>  8 ran_coef ID        8 tcl      -5.39
#>  9 ran_coef ID        9 tcl      -5.25
#> 10 ran_coef ID       10 tcl      -5.02
#> # … with 108 more rows
…
