Modifying nlmixr models by piping • nlmixr
…
#>  
#> 
#>   No correlations in between subject variability (BSV) matrix
#>   Full BSV covariance ($omega) or correlation ($omegaR; diagonals=SDs) 
#>   Distribution stats (mean/skewness/kurtosis/p-value) available in $shrink 
#>   Minimization message ($message):  
#>     false convergence (8) 
#>   In an ODE system, false convergence may mean "useless" evaluations were performed.
#>   See https://tinyurl.com/yyrrwkce
#>   It could also mean the convergence is poor, check results before accepting fit
#>   You may also try a good derivative free optimization:
#>     nlmixr(...,control=list(outerOpt="bobyqa"))
#> 
#> ── Fit Data (object is a modified tibble): ─────────────────────────────────────
#> # A tibble: 132 x 27
#>   ID     TIME    DV  EVID  PRED    RES   WRES IPRED   IRES  IWRES CPRED   CRES
#>   <fct> <dbl> <dbl> <int> <dbl>  <dbl>  <dbl> <dbl>  <dbl>  <dbl> <dbl>  <dbl>
#> 1 1     0      0.74     0  0     0.74   0.391  0     0.74   1.06   0     0.74 
#> 2 1     0.25   2.84     0  3.29 -0.449 -0.237  3.85 -1.01  -1.45   3.25 -0.409
#> 3 1     0.570  6.57     0  5.87  0.705  0.372  6.79 -0.216 -0.310  5.81  0.756
#> # … with 129 more rows, and 15 more variables: CWRES <dbl>, eta.ka <dbl>,
#> #   eta.cl <dbl>, eta.v <dbl>, ka <dbl>, cl <dbl>, v <dbl>, cp <dbl>,
#> #   tad <dbl>, dosenum <dbl>, depot <dbl>, center <dbl>, EPRED <dbl>,
#> #   ERES <dbl>, NPDE <dbl>
…
#>  
#> 
#>   No correlations in between subject variability (BSV) matrix
#>   Full BSV covariance ($omega) or correlation ($omegaR; diagonals=SDs) 
#>   Distribution stats (mean/skewness/kurtosis/p-value) available in $shrink 
#>   Minimization message ($message):  
#>     false convergence (8) 
#>   In an ODE system, false convergence may mean "useless" evaluations were performed.
#>   See https://tinyurl.com/yyrrwkce
#>   It could also mean the convergence is poor, check results before accepting fit
#>   You may also try a good derivative free optimization:
#>     nlmixr(...,control=list(outerOpt="bobyqa"))
#> 
#> ── Fit Data (object is a modified tibble): ─────────────────────────────────────
#> # A tibble: 132 x 27
#>   ID     TIME    DV  EVID  PRED    RES   WRES IPRED   IRES  IWRES CPRED   CRES
#>   <fct> <dbl> <dbl> <int> <dbl>  <dbl>  <dbl> <dbl>  <dbl>  <dbl> <dbl>  <dbl>
#> 1 1     0      0.74     0  0     0.74   0.391  0     0.74   1.06   0     0.74 
#> 2 1     0.25   2.84     0  3.36 -0.520 -0.275  3.85 -1.01  -1.45   3.33 -0.490
#> 3 1     0.570  6.57     0  5.96  0.611  0.322  6.79 -0.219 -0.314  5.92  0.652
#> # … with 129 more rows, and 15 more variables: CWRES <dbl>, eta.ka <dbl>,
#> #   eta.cl <dbl>, eta.v <dbl>, ka <dbl>, cl <dbl>, v <dbl>, cp <dbl>,
#> #   tad <dbl>, dosenum <dbl>, depot <dbl>, center <dbl>, EPRED <dbl>,
#> #   ERES <dbl>, NPDE <dbl>
…
#>  
#> 
#>   No correlations in between subject variability (BSV) matrix
#>   Full BSV covariance ($omega) or correlation ($omegaR; diagonals=SDs) 
#>   Distribution stats (mean/skewness/kurtosis/p-value) available in $shrink 
#>   Minimization message ($message):  
#>     false convergence (8) 
#>   In an ODE system, false convergence may mean "useless" evaluations were performed.
#>   See https://tinyurl.com/yyrrwkce
#>   It could also mean the convergence is poor, check results before accepting fit
#>   You may also try a good derivative free optimization:
#>     nlmixr(...,control=list(outerOpt="bobyqa"))
#> 
#> ── Fit Data (object is a modified tibble): ─────────────────────────────────────
#> # A tibble: 132 x 27
#>   ID     TIME    DV  EVID  PRED    RES   WRES IPRED   IRES  IWRES CPRED   CRES
#>   <fct> <dbl> <dbl> <int> <dbl>  <dbl>  <dbl> <dbl>  <dbl>  <dbl> <dbl>  <dbl>
#> 1 1     0      0.74     0  0     0.74   0.391  0     0.74   1.06   0     0.74 
#> 2 1     0.25   2.84     0  3.29 -0.449 -0.237  3.85 -1.01  -1.45   3.25 -0.409
#> 3 1     0.570  6.57     0  5.87  0.705  0.372  6.79 -0.216 -0.310  5.81  0.756
#> # … with 129 more rows, and 15 more variables: CWRES <dbl>, eta.ka <dbl>,
#> #   eta.cl <dbl>, eta.v <dbl>, ka <dbl>, cl <dbl>, v <dbl>, cp <dbl>,
#> #   tad <dbl>, dosenum <dbl>, depot <dbl>, center <dbl>, EPRED <dbl>,
#> #   ERES <dbl>, NPDE <dbl>
…
#>  
#> 
#>   No correlations in between subject variability (BSV) matrix
#>   Full BSV covariance ($omega) or correlation ($omegaR; diagonals=SDs) 
#>   Distribution stats (mean/skewness/kurtosis/p-value) available in $shrink 
#>   Minimization message ($message):  
#>     false convergence (8) 
#>   In an ODE system, false convergence may mean "useless" evaluations were performed.
#>   See https://tinyurl.com/yyrrwkce
#>   It could also mean the convergence is poor, check results before accepting fit
#>   You may also try a good derivative free optimization:
#>     nlmixr(...,control=list(outerOpt="bobyqa"))
#> 
#> ── Fit Data (object is a modified tibble): ─────────────────────────────────────
#> # A tibble: 132 x 27
#>   ID     TIME    DV  EVID  PRED    RES   WRES IPRED   IRES  IWRES CPRED   CRES
#>   <fct> <dbl> <dbl> <int> <dbl>  <dbl>  <dbl> <dbl>  <dbl>  <dbl> <dbl>  <dbl>
#> 1 1     0      0.74     0  0     0.74   0.391  0     0.74   1.06   0     0.74 
#> 2 1     0.25   2.84     0  3.28 -0.438 -0.231  3.85 -1.01  -1.44   3.24 -0.396
#> 3 1     0.570  6.57     0  5.85  0.722  0.381  6.79 -0.215 -0.309  5.79  0.776
#> # … with 129 more rows, and 15 more variables: CWRES <dbl>, eta.ka <dbl>,
#> #   eta.cl <dbl>, eta.v <dbl>, ka <dbl>, cl <dbl>, v <dbl>, cp <dbl>,
#> #   tad <dbl>, dosenum <dbl>, depot <dbl>, center <dbl>, EPRED <dbl>,
#> #   ERES <dbl>, NPDE <dbl>
…
#>   Covariance Type ($covMethod): r,s
#>   Fixed parameter correlations in $cor
#>   No correlations in between subject variability (BSV) matrix
#>   Full BSV covariance ($omega) or correlation ($omegaR; diagonals=SDs) 
#>   Distribution stats (mean/skewness/kurtosis/p-value) available in $shrink 
#>   Minimization message ($message):  
#>     false convergence (8) 
#>   In an ODE system, false convergence may mean "useless" evaluations were performed.
#>   See https://tinyurl.com/yyrrwkce
#>   It could also mean the convergence is poor, check results before accepting fit
#>   You may also try a good derivative free optimization:
#>     nlmixr(...,control=list(outerOpt="bobyqa"))
#> 
#> ── Fit Data (object is a modified tibble): ─────────────────────────────────────
#> # A tibble: 132 x 26
#>   ID     TIME    DV  EVID  PRED    RES   WRES IPRED   IRES  IWRES CPRED   CRES
#>   <fct> <dbl> <dbl> <int> <dbl>  <dbl>  <dbl> <dbl>  <dbl>  <dbl> <dbl>  <dbl>
#> 1 1     0      0.74     0  0     0.74   0.708  0     0.74   0.727  0     0.74 
#> 2 1     0.25   2.84     0  3.12 -0.276 -0.264  3.57 -0.725 -0.712  3.09 -0.246
#> 3 1     0.570  6.57     0  5.61  0.961  0.920  6.44  0.127  0.125  5.56  1.01 
#> # … with 129 more rows, and 14 more variables: CWRES <dbl>, eta.cl <dbl>,
#> #   eta.v <dbl>, ka <dbl>, cl <dbl>, v <dbl>, cp <dbl>, tad <dbl>,
#> #   dosenum <dbl>, depot <dbl>, center <dbl>, EPRED <dbl>, ERES <dbl>,
#> #   NPDE <dbl>
…
#>  
#> 
#>   No correlations in between subject variability (BSV) matrix
#>   Full BSV covariance ($omega) or correlation ($omegaR; diagonals=SDs) 
#>   Distribution stats (mean/skewness/kurtosis/p-value) available in $shrink 
#>   Minimization message ($message):  
#>     false convergence (8) 
#>   In an ODE system, false convergence may mean "useless" evaluations were performed.
#>   See https://tinyurl.com/yyrrwkce
#>   It could also mean the convergence is poor, check results before accepting fit
#>   You may also try a good derivative free optimization:
#>     nlmixr(...,control=list(outerOpt="bobyqa"))
#> 
#> ── Fit Data (object is a modified tibble): ─────────────────────────────────────
#> # A tibble: 132 x 27
#>   ID     TIME    DV  EVID  PRED    RES   WRES IPRED   IRES  IWRES CPRED   CRES
#>   <fct> <dbl> <dbl> <int> <dbl>  <dbl>  <dbl> <dbl>  <dbl>  <dbl> <dbl>  <dbl>
#> 1 1     0      0.74     0  0     0.74   0.375  0     0.74   1.07   0     0.74 
#> 2 1     0.25   2.84     0  3.28 -0.442 -0.224  3.85 -1.01  -1.45   3.24 -0.400
#> 3 1     0.570  6.57     0  5.86  0.712  0.361  6.79 -0.216 -0.310  5.81  0.764
#> # … with 129 more rows, and 15 more variables: CWRES <dbl>, eta.cl <dbl>,
#> #   eta.v <dbl>, bsv.ka <dbl>, ka <dbl>, cl <dbl>, v <dbl>, cp <dbl>,
#> #   tad <dbl>, dosenum <dbl>, depot <dbl>, center <dbl>, EPRED <dbl>,
#> #   ERES <dbl>, NPDE <dbl>
…
#>  
#> 
#>   No correlations in between subject variability (BSV) matrix
#>   Full BSV covariance ($omega) or correlation ($omegaR; diagonals=SDs) 
#>   Distribution stats (mean/skewness/kurtosis/p-value) available in $shrink 
#>   Minimization message ($message):  
#>     false convergence (8) 
#>   In an ODE system, false convergence may mean "useless" evaluations were performed.
#>   See https://tinyurl.com/yyrrwkce
#>   It could also mean the convergence is poor, check results before accepting fit
#>   You may also try a good derivative free optimization:
#>     nlmixr(...,control=list(outerOpt="bobyqa"))
#> 
#> ── Fit Data (object is a modified tibble): ─────────────────────────────────────
#> # A tibble: 132 x 27
#>   ID     TIME    DV  EVID  PRED    RES   WRES IPRED   IRES  IWRES CPRED   CRES
#>   <fct> <dbl> <dbl> <int> <dbl>  <dbl>  <dbl> <dbl>  <dbl>  <dbl> <dbl>  <dbl>
#> 1 1     0      0.74     0  0     0.74   0.380  0     0.74   1.06   0     0.74 
#> 2 1     0.25   2.84     0  3.26 -0.424 -0.218  3.85 -1.01  -1.44   3.22 -0.380
#> 3 1     0.570  6.57     0  5.83  0.737  0.378  6.78 -0.215 -0.308  5.78  0.793
#> # … with 129 more rows, and 15 more variables: CWRES <dbl>, eta.ka <dbl>,
#> #   eta.cl <dbl>, eta.v <dbl>, ka <dbl>, cl <dbl>, v <dbl>, cp <dbl>,
#> #   tad <dbl>, dosenum <dbl>, depot <dbl>, center <dbl>, EPRED <dbl>,
#> #   ERES <dbl>, NPDE <dbl>
…
#>  
#> 
#>   No correlations in between subject variability (BSV) matrix
#>   Full BSV covariance ($omega) or correlation ($omegaR; diagonals=SDs) 
#>   Distribution stats (mean/skewness/kurtosis/p-value) available in $shrink 
#>   Minimization message ($message):  
#>     false convergence (8) 
#>   In an ODE system, false convergence may mean "useless" evaluations were performed.
#>   See https://tinyurl.com/yyrrwkce
#>   It could also mean the convergence is poor, check results before accepting fit
#>   You may also try a good derivative free optimization:
#>     nlmixr(...,control=list(outerOpt="bobyqa"))
#> 
#> ── Fit Data (object is a modified tibble): ─────────────────────────────────────
#> # A tibble: 132 x 27
#>   ID     TIME    DV  EVID  PRED    RES   WRES IPRED   IRES  IWRES CPRED   CRES
#>   <fct> <dbl> <dbl> <int> <dbl>  <dbl>  <dbl> <dbl>  <dbl>  <dbl> <dbl>  <dbl>
#> 1 1     0      0.74     0  0     0.74   0.395  0     0.74   1.65   0     0.74 
#> 2 1     0.25   2.84     0  3.19 -0.350 -0.187  3.60 -0.762 -1.35   3.17 -0.329
#> 3 1     0.570  6.57     0  5.73  0.836  0.441  6.45  0.125  0.165  5.71  0.863
#> # … with 129 more rows, and 15 more variables: CWRES <dbl>, eta.ka <dbl>,
#> #   eta.cl <dbl>, eta.v <dbl>, ka <dbl>, cl <dbl>, v <dbl>, cp <dbl>,
#> #   tad <dbl>, dosenum <dbl>, depot <dbl>, center <dbl>, EPRED <dbl>,
#> #   ERES <dbl>, NPDE <dbl>
…
