Working with multiple endpoints • nlmixr
…
#> prop.err             
#> pkadd.err            
#> poplogit       84.2% 
#> tec50          6.17% 
#> tkout          43.8% 
#> te0            19.9% 
#> pdadd.err             
#> 
#>   Covariance Type ($covMethod): linFim
#>   No correlations in between subject variability (BSV) matrix
#>   Full BSV covariance ($omega) or correlation ($omegaR; diagonals=SDs) 
#>   Distribution stats (mean/skewness/kurtosis/p-value) available in $shrink 
#> 
#> ── Fit Data (object is a modified tibble): ──────────────────────────────── 
#> # A tibble: 483 x 42
#>   ID     TIME    DV  EVID CMT    PRED   RES   WRES IPRED   IRES IWRES CPRED
#>   <fct> <dbl> <dbl> <int> <fct> <dbl> <dbl>  <dbl> <dbl>  <dbl> <dbl> <dbl>
#> 1 1       0.5   0       0 cp     1.50 -1.50 -0.564 0.484 -0.484 -1.97  1.05
#> 2 1       1     1.9     0 cp     4.16 -2.26 -0.849 1.57   0.329  1.09  3.24
#> 3 1       2     3.3     0 cp     8.57 -5.27 -1.91  4.21  -0.906 -1.67  7.80
#> # … with 480 more rows, and 30 more variables: CRES <dbl>, CWRES <dbl>,
#> #   eta.ktr <dbl>, eta.ka <dbl>, eta.cl <dbl>, eta.v <dbl>,
#> #   eta.emax <dbl>, eta.ec50 <dbl>, eta.kout <dbl>, eta.e0 <dbl>,
#> #   ktr <dbl>, ka <dbl>, cl <dbl>, v <dbl>, logit <dbl>, emax <dbl>,
#> #   ec50 <dbl>, kout <dbl>, e0 <dbl>, DCP <dbl>, PD <dbl>, kin <dbl>,
#> #   cp <dbl>, depot <dbl>, gut <dbl>, center <dbl>, effect <dbl>,
#> #   EPRED <dbl>, ERES <dbl>, NPDE <dbl>
…
#> 
#>   Covariance Type ($covMethod): r,s
#>   No correlations in between subject variability (BSV) matrix
#>   Full BSV covariance ($omega) or correlation ($omegaR; diagonals=SDs) 
#>   Distribution stats (mean/skewness/kurtosis/p-value) available in $shrink 
#>   Minimization message ($message):  
#>     false convergence (8) 
#>   In an ODE system, false convergence may mean "useless" evaluations were performed.
#>   See https://tinyurl.com/yyrrwkce
#>   It could also mean the convergence is poor, check results before accepting fit
#>   You may also try a good derivative free optimization:
#>     nlmixr(...,control=list(outerOpt="bobyqa"))
#> 
#> ── Fit Data (object is a modified tibble): ──────────────────────────────── 
#> # A tibble: 483 x 42
#>   ID     TIME    DV  EVID CMT    PRED   RES   WRES IPRED   IRES IWRES CPRED
#>   <fct> <dbl> <dbl> <int> <fct> <dbl> <dbl>  <dbl> <dbl>  <dbl> <dbl> <dbl>
#> 1 1       0.5   0       0 cp     1.35 -1.35 -0.448 0.444 -0.444 -1.81 0.957
#> 2 1       1     1.9     0 cp     3.81 -1.91 -0.634 1.46   0.442  1.46 2.98 
#> 3 1       2     3.3     0 cp     8.07 -4.77 -1.51  3.98  -0.681 -1.20 7.35 
#> # … with 480 more rows, and 30 more variables: CRES <dbl>, CWRES <dbl>,
#> #   eta.ktr <dbl>, eta.ka <dbl>, eta.cl <dbl>, eta.v <dbl>,
#> #   eta.emax <dbl>, eta.ec50 <dbl>, eta.kout <dbl>, eta.e0 <dbl>,
#> #   ktr <dbl>, ka <dbl>, cl <dbl>, v <dbl>, logit <dbl>, emax <dbl>,
#> #   ec50 <dbl>, kout <dbl>, e0 <dbl>, DCP <dbl>, PD <dbl>, kin <dbl>,
#> #   cp <dbl>, depot <dbl>, gut <dbl>, center <dbl>, effect <dbl>,
#> #   EPRED <dbl>, ERES <dbl>, NPDE <dbl>
…
