Running PK models with nlmixr • nlmixr
…
##   Full BSV covariance ($omega) or correlation ($omegaR; diagonals=SDs)

##   Distribution stats (mean/skewness/kurtosis/p-value) available in $shrink

## 
## ── Fit Data (object is a modified tibble): ────────────────────────────────

## # A tibble: 132 x 18
##   ID     TIME    DV  EVID  PRED    RES IPRED   IRES  IWRES eta.ka eta.cl
##   <fct> <dbl> <dbl> <int> <dbl>  <dbl> <dbl>  <dbl>  <dbl>  <dbl>  <dbl>
## 1 1     0      0.74     0  0    0.74    0     0.74   1.07   0.124 -0.625
## 2 1     0.25   2.84     0  2.82 0.0219  3.86 -1.02  -1.47   0.124 -0.625
## 3 1     0.570  6.57     0  5.05 1.52    6.78 -0.207 -0.299  0.124 -0.625
## # … with 129 more rows, and 7 more variables: eta.v <dbl>, rx1c <dbl>,
## #   ka <dbl>, cl <dbl>, v <dbl>, depot <dbl>, central <dbl>
…
  No correlations in between subject variability (BSV) matrix
  Full BSV covariance (fit$omega) or correlation (fit$omega.R; diagonals=SDs)
  Distribution stats (mean/skewness/kurtosis/p-value) available in fit$shrink

-- Fit Data (object fit is a modified data.frame): -----------------------------
# A tibble: 132 x 21
  ID     TIME    DV  PRED     RES    WRES IPRED   IRES  IWRES CPRED  CRES
* <fct> <dbl> <dbl> <dbl>   <dbl>   <dbl> <dbl>  <dbl>  <dbl> <dbl> <dbl>
1 1     0      0.74  0    0.74    1.07     0     0.74   1.07   0    0.74 
2 1     0.25   2.84  2.84 0.00438 0.00254  3.86 -1.02  -1.48   2.68 0.164
3 1     0.570  6.57  5.07 1.50    0.656    6.79 -0.219 -0.316  4.84 1.73 
# ... with 129 more rows, and 10 more variables: CWRES <dbl>, eta.ka <dbl>,
#   eta.cl <dbl>, eta.v <dbl>, depot <dbl>, center <dbl>, ka <dbl>, cl <dbl>,
#   v <dbl>, cp <dbl>
…
