xgxr nlmixr and ggPmx integration • nlmixr
…
ev$add.sampling(seq(0, 8, length.out=100))
print(ev)
#> ─────────────────────── EventTable with 101 records ───────────────────────
#>    1 dosing records (see $get.dosing(); add with add.dosing or et)
#>    100 observation times (see $get.sampling(); add with add.sampling or et)
#> ── First part of : ────────────────────────────────────────────────────────
#> # A tibble: 101 x 5
#>      time   amt    ii evid             ss
#>     <dbl> <dbl> <dbl> <evid>        <int>
#>  1 0         NA    NA 0:Observation    NA
#>  2 0        100     8 1:Dose (Add)      1
#>  3 0.0808    NA    NA 0:Observation    NA
#>  4 0.162     NA    NA 0:Observation    NA
#>  5 0.242     NA    NA 0:Observation    NA
#>  6 0.323     NA    NA 0:Observation    NA
#>  7 0.404     NA    NA 0:Observation    NA
#>  8 0.485     NA    NA 0:Observation    NA
#>  9 0.566     NA    NA 0:Observation    NA
#> 10 0.646     NA    NA 0:Observation    NA
#> # … with 91 more rows
…
print(sim1)
#> ▂▂▂▂▂▂▂▂▂▂▂▂▂▂▂▂▂▂▂▂▂▂▂▂▂▂▂ Solved RxODE object ▂▂▂▂▂▂▂▂▂▂▂▂▂▂▂▂▂▂▂▂▂▂▂▂▂▂▂
#> ── Initial Conditions ($inits): ───────────────────────────────────────────
#>      depot    central peripheral 
#>          0          0          0 
#> 
#> Simulation with uncertainty in:
#>   - parameters ($thetaMat for changes)
#>   - omega matrix ($omegaList)
#>   - sigma matrix ($sigmaList)
#> 
#> ── First part of data (object): ───────────────────────────────────────────
#> # A tibble: 1,000,000 x 7
#>   sim.id   time ipred   sim depot central peripheral
#>    <int>  <dbl> <dbl> <dbl> <dbl>   <dbl>      <dbl>
#> 1      1 0      0.250 0.331 102.     1.96       105.
#> 2      1 0.0808 0.691 0.797  97.6    5.41       105.
#> 3      1 0.162  0.995 0.852  93.7    7.79       105.
#> 4      1 0.242  1.20  0.772  89.9    9.39       106.
#> 5      1 0.323  1.33  1.42   86.2   10.4        106.
#> 6      1 0.404  1.41  1.10   82.7   11.1        107.
#> # … with 999,994 more rows
…
