Stepwise Covariate Model-selection (SCM) method — covarSearchAuto • nlmixr
…
#>  
#>   Covariance Type ($covMethod): r,s
#>   Some strong fixed parameter correlations exist ($cor) :
#>     cor:tcl,tka  cor:tv,tka  cor:tv,tcl 
#>      0.158        0.422       0.744  
#>  
#> 
#>   No correlations in between subject variability (BSV) matrix
#>   Full BSV covariance ($omega) or correlation ($omegaR; diagonals=SDs) 
#>   Distribution stats (mean/skewness/kurtosis/p-value) available in $shrink 
#>   Minimization message ($message):  
#>     relative convergence (4) 
#> 
#> ── Fit Data (object is a modified tibble): ─────────────────────────────────────
#> # A tibble: 132 x 21
#>   ID     TIME    DV  EVID     PRED    RES   WRES IPRED   IRES  IWRES     CPRED
#>   <fct> <dbl> <dbl> <int>    <dbl>  <dbl>  <dbl> <dbl>  <dbl>  <dbl>     <dbl>
#> 1 1     0      0.74     0 1.79e-15  0.740  0.391  0     0.74   1.07  -5.61e-16
#> 2 1     0.25   2.84     0 3.26e+ 0 -0.423 -0.223  3.85 -1.01  -1.45   3.22e+ 0
#> 3 1     0.570  6.57     0 5.83e+ 0  0.740  0.391  6.78 -0.215 -0.309  5.77e+ 0
#> # … with 129 more rows, and 10 more variables: CRES <dbl>, CWRES <dbl>,
#> #   eta.ka <dbl>, eta.cl <dbl>, eta.v <dbl>, ka <dbl>, cl <dbl>, v <dbl>,
#> #   tad <dbl>, dosenum <dbl>
…
#>  
#>   Covariance Type ($covMethod): r,s
#>   Some strong fixed parameter correlations exist ($cor) :
#>     cor:tcl,tka  cor:tv,tka  cor:tv,tcl 
#>      0.158        0.422       0.744  
#>  
#> 
#>   No correlations in between subject variability (BSV) matrix
#>   Full BSV covariance ($omega) or correlation ($omegaR; diagonals=SDs) 
#>   Distribution stats (mean/skewness/kurtosis/p-value) available in $shrink 
#>   Minimization message ($message):  
#>     relative convergence (4) 
#> 
#> ── Fit Data (object is a modified tibble): ─────────────────────────────────────
#> # A tibble: 132 x 21
#>   ID     TIME    DV  EVID     PRED    RES   WRES IPRED   IRES  IWRES     CPRED
#>   <fct> <dbl> <dbl> <int>    <dbl>  <dbl>  <dbl> <dbl>  <dbl>  <dbl>     <dbl>
#> 1 1     0      0.74     0 1.79e-15  0.740  0.391  0     0.74   1.07  -5.61e-16
#> 2 1     0.25   2.84     0 3.26e+ 0 -0.423 -0.223  3.85 -1.01  -1.45   3.22e+ 0
#> 3 1     0.570  6.57     0 5.83e+ 0  0.740  0.391  6.78 -0.215 -0.309  5.77e+ 0
#> # … with 129 more rows, and 10 more variables: CRES <dbl>, CWRES <dbl>,
#> #   eta.ka <dbl>, eta.cl <dbl>, eta.v <dbl>, ka <dbl>, cl <dbl>, v <dbl>,
#> #   tad <dbl>, dosenum <dbl>
…
#>  
#>   Covariance Type ($covMethod): r,s
#>   Some strong fixed parameter correlations exist ($cor) :
#>     cor:tcl,tka  cor:tv,tka  cor:tv,tcl 
#>      0.158        0.422       0.744  
#>  
#> 
#>   No correlations in between subject variability (BSV) matrix
#>   Full BSV covariance ($omega) or correlation ($omegaR; diagonals=SDs) 
#>   Distribution stats (mean/skewness/kurtosis/p-value) available in $shrink 
#>   Minimization message ($message):  
#>     relative convergence (4) 
#> 
#> ── Fit Data (object is a modified tibble): ─────────────────────────────────────
#> # A tibble: 132 x 21
#>   ID     TIME    DV  EVID     PRED    RES   WRES IPRED   IRES  IWRES     CPRED
#>   <fct> <dbl> <dbl> <int>    <dbl>  <dbl>  <dbl> <dbl>  <dbl>  <dbl>     <dbl>
#> 1 1     0      0.74     0 1.79e-15  0.740  0.391  0     0.74   1.07  -5.61e-16
#> 2 1     0.25   2.84     0 3.26e+ 0 -0.423 -0.223  3.85 -1.01  -1.45   3.22e+ 0
#> 3 1     0.570  6.57     0 5.83e+ 0  0.740  0.391  6.78 -0.215 -0.309  5.77e+ 0
#> # … with 129 more rows, and 10 more variables: CRES <dbl>, CWRES <dbl>,
#> #   eta.ka <dbl>, eta.cl <dbl>, eta.v <dbl>, ka <dbl>, cl <dbl>, v <dbl>,
#> #   tad <dbl>, dosenum <dbl>
…
#>  
#>   Covariance Type ($covMethod): r,s
#>   Some strong fixed parameter correlations exist ($cor) :
#>     cor:tcl,tka  cor:tv,tka  cor:tv,tcl 
#>      0.158        0.422       0.744  
#>  
#> 
#>   No correlations in between subject variability (BSV) matrix
#>   Full BSV covariance ($omega) or correlation ($omegaR; diagonals=SDs) 
#>   Distribution stats (mean/skewness/kurtosis/p-value) available in $shrink 
#>   Minimization message ($message):  
#>     relative convergence (4) 
#> 
#> ── Fit Data (object is a modified tibble): ─────────────────────────────────────
#> # A tibble: 132 x 21
#>   ID     TIME    DV  EVID     PRED    RES   WRES IPRED   IRES  IWRES     CPRED
#>   <fct> <dbl> <dbl> <int>    <dbl>  <dbl>  <dbl> <dbl>  <dbl>  <dbl>     <dbl>
#> 1 1     0      0.74     0 1.79e-15  0.740  0.391  0     0.74   1.07  -5.61e-16
#> 2 1     0.25   2.84     0 3.26e+ 0 -0.423 -0.223  3.85 -1.01  -1.45   3.22e+ 0
#> 3 1     0.570  6.57     0 5.83e+ 0  0.740  0.391  6.78 -0.215 -0.309  5.77e+ 0
#> # … with 129 more rows, and 10 more variables: CRES <dbl>, CWRES <dbl>,
#> #   eta.ka <dbl>, eta.cl <dbl>, eta.v <dbl>, ka <dbl>, cl <dbl>, v <dbl>,
#> #   tad <dbl>, dosenum <dbl>
…
#>  
#>   Covariance Type ($covMethod): r,s
#>   Some strong fixed parameter correlations exist ($cor) :
#>     cor:tcl,tka  cor:tv,tka  cor:tv,tcl 
#>      0.158        0.422       0.744  
#>  
#> 
#>   No correlations in between subject variability (BSV) matrix
#>   Full BSV covariance ($omega) or correlation ($omegaR; diagonals=SDs) 
#>   Distribution stats (mean/skewness/kurtosis/p-value) available in $shrink 
#>   Minimization message ($message):  
#>     relative convergence (4) 
#> 
#> ── Fit Data (object is a modified tibble): ─────────────────────────────────────
#> # A tibble: 132 x 21
#>   ID     TIME    DV  EVID     PRED    RES   WRES IPRED   IRES  IWRES     CPRED
#>   <fct> <dbl> <dbl> <int>    <dbl>  <dbl>  <dbl> <dbl>  <dbl>  <dbl>     <dbl>
#> 1 1     0      0.74     0 1.79e-15  0.740  0.391  0     0.74   1.07  -5.61e-16
#> 2 1     0.25   2.84     0 3.26e+ 0 -0.423 -0.223  3.85 -1.01  -1.45   3.22e+ 0
#> 3 1     0.570  6.57     0 5.83e+ 0  0.740  0.391  6.78 -0.215 -0.309  5.77e+ 0
#> # … with 129 more rows, and 10 more variables: CRES <dbl>, CWRES <dbl>,
#> #   eta.ka <dbl>, eta.cl <dbl>, eta.v <dbl>, ka <dbl>, cl <dbl>, v <dbl>,
#> #   tad <dbl>, dosenum <dbl>
…
