nlmixr fits population PK and PKPD non-linear mixed effects models. — nlmixr • nlmixr
…
              Parameter Estimate     SE  
 lCl      log Cl (L/hr)     1.39 0.0240  1.73       4.01 (3.83, 4.20)    26.6
 lVc         log Vc (L)     4.20 0.0256 0.608       67.0 (63.7, 70.4)    28.5
 lKA      log Ka (1/hr)  0.00924 0.0323  349.      1.01 (0.947, 1.08)    34.3
 prop.err      prop.err    0.198                             19.8
          Shrink(SD)
 lCl          0.248
 lVc           1.09
 lKA           4.19
 prop.err      1.81
    No correlations in between subject variability (BSV) matrix
   Full BSV covariance (fit.s$omega) or correlation (fit.s$omega.R; diagonals=SDs)
   Distribution stats (mean/skewness/kurtosis/p-value) available in fit.s$shrink
    -- Fit Data (object fit.s is a modified data.frame): ---------------------------
 # A tibble: 6,947 x 22
   ID     TIME    DV  PRED    RES    WRES IPRED  IRES  IWRES CPRED   CRES
 * <fct> <dbl> <dbl> <dbl>  <dbl>   <dbl> <dbl> <dbl>  <dbl> <dbl>  <dbl>
 1 1      0.25  205.  198.   6.60  0.0741  189.  16.2  0.434  198.   6.78
 2 1      0.5   311.  349. -38.7  -0.261   330. -19.0 -0.291  349. -38.3
 3 1      0.75  389.  464. -74.5  -0.398   434. -45.2 -0.526  463. -73.9
 # ... with 6,944 more rows, and 11 more variables: CWRES <dbl>, eta.Cl <dbl>,
 #   eta.Vc <dbl>, eta.KA <dbl>, depot <dbl>, centr <dbl>, Cl <dbl>, Vc <dbl>,
…
