Example Model: Phenobarbitol with correlations • nlmixr
…
#> tv          42.0      1.42% 
#> add.err                     
#>  
#>   Covariance Type ($covMethod): linFim
#>   Fixed parameter correlations in $cor
#>   Correlations in between subject variability (BSV) matrix:
#>     cor:eta.v,eta.cl 
#>           0.959  
#>  
#> 
#>   Full BSV covariance ($omega) or correlation ($omegaR; diagonals=SDs) 
#>   Distribution stats (mean/skewness/kurtosis/p-value) available in $shrink 
#> 
#> ── Fit Data (object is a modified tibble): ─────────────────────────────────────
#> # A tibble: 155 x 23
#>   ID     TIME    DV EPRED  ERES   NPDE  PRED    RES    WRES IPRED  IRES  IWRES
#>   <fct> <dbl> <dbl> <dbl> <dbl>  <dbl> <dbl>  <dbl>   <dbl> <dbl> <dbl>  <dbl>
#> 1 1        2   17.3  18.4 -1.12 -0.449  17.6 -0.302 -0.0395  18.7 -1.35 -0.484
#> 2 1      112.  31    28.9  2.11  0.350  27.9  3.08   0.253   30.0  1.01  0.360
#> 3 2        2    9.7  11.3 -1.55 -0.706  10.6 -0.861 -0.169   12.5 -2.78 -0.995
#> # … with 152 more rows, and 11 more variables: CPRED <dbl>, CRES <dbl>,
#> #   CWRES <dbl>, eta.cl <dbl>, eta.v <dbl>, A1 <dbl>, cl <dbl>, v <dbl>,
#> #   ke <dbl>, tad <dbl>, dosenum <dbl>
…
