Modifying nlmixr models by piping • nlmixr
…
#>  
#> 
#>   No correlations in between subject variability (BSV) matrix
#>   Full BSV covariance ($omega) or correlation ($omegaR; diagonals=SDs) 
#>   Distribution stats (mean/skewness/kurtosis/p-value) available in $shrink 
#>   Minimization message ($message):  
#>     false convergence (8) 
#>   In an ODE system, false convergence may mean "useless" evaluations were performed.
#>   See https://tinyurl.com/yyrrwkce
#>   It could also mean the convergence is poor, check results before accepting fit
#>   You may also try a good derivative free optimization:
#>     nlmixr(...,control=list(outerOpt="bobyqa"))
#> 
#> ── Fit Data (object is a modified tibble): ─────────────────────────────────────
#> # A tibble: 132 × 26
#>   ID     TIME    DV  EPRED   ERES   NPDE    NPD  PRED    RES   WRES IPRED   IRES
#>   <fct> <dbl> <dbl>  <dbl>  <dbl>  <dbl>  <dbl> <dbl>  <dbl>  <dbl> <dbl>  <dbl>
#> 1 1      0     0.74 0.0967  0.643  1.24   1.24   0     0.74   1.06   0     0.74 
#> 2 1      0.25  2.84 3.83   -0.986 -0.486 -0.486  3.29 -0.449 -0.242  3.85 -1.01 
#> 3 1      0.57  6.57 6.15    0.422 -1.71  -1.71   5.87  0.705  0.287  6.79 -0.216
#> # … with 129 more rows, and 14 more variables: IWRES <dbl>, CPRED <dbl>,
#> #   CRES <dbl>, CWRES <dbl>, eta.ka <dbl>, eta.cl <dbl>, eta.v <dbl>,
#> #   depot <dbl>, center <dbl>, ka <dbl>, cl <dbl>, v <dbl>, tad <dbl>,
#> #   dosenum <dbl>
…
#>  
#>   Covariance Type ($covMethod): r,s
#>   Some strong fixed parameter correlations exist ($cor) :
#>     cor:tv,tcl 
#>     0.741  
#>  
#> 
#>   No correlations in between subject variability (BSV) matrix
#>   Full BSV covariance ($omega) or correlation ($omegaR; diagonals=SDs) 
#>   Distribution stats (mean/skewness/kurtosis/p-value) available in $shrink 
#>   Minimization message ($message):  
#>     relative convergence (4) 
#> 
#> ── Fit Data (object is a modified tibble): ─────────────────────────────────────
#> # A tibble: 132 × 26
#>   ID     TIME    DV  EPRED   ERES   NPDE    NPD  PRED    RES   WRES IPRED   IRES
#>   <fct> <dbl> <dbl>  <dbl>  <dbl>  <dbl>  <dbl> <dbl>  <dbl>  <dbl> <dbl>  <dbl>
#> 1 1      0     0.74 0.0964  0.644  1.26   1.26   0     0.74   1.07   0     0.74 
#> 2 1      0.25  2.84 3.93   -1.09  -0.341 -0.341  3.36 -0.520 -0.266  3.85 -1.01 
#> 3 1      0.57  6.57 6.23    0.337 -1.79  -1.79   5.96  0.611  0.239  6.79 -0.220
#> # … with 129 more rows, and 14 more variables: IWRES <dbl>, CPRED <dbl>,
#> #   CRES <dbl>, CWRES <dbl>, eta.ka <dbl>, eta.cl <dbl>, eta.v <dbl>,
#> #   depot <dbl>, center <dbl>, ka <dbl>, cl <dbl>, v <dbl>, tad <dbl>,
#> #   dosenum <dbl>
…
#>  
#>   Covariance Type ($covMethod): r,s
#>   Some strong fixed parameter correlations exist ($cor) :
#>     cor:tv,tcl 
#>     0.759  
#>  
#> 
#>   No correlations in between subject variability (BSV) matrix
#>   Full BSV covariance ($omega) or correlation ($omegaR; diagonals=SDs) 
#>   Distribution stats (mean/skewness/kurtosis/p-value) available in $shrink 
#>   Minimization message ($message):  
#>     relative convergence (4) 
#> 
#> ── Fit Data (object is a modified tibble): ─────────────────────────────────────
#> # A tibble: 132 × 26
#>   ID     TIME    DV  EPRED   ERES   NPDE    NPD  PRED    RES   WRES IPRED   IRES
#>   <fct> <dbl> <dbl>  <dbl>  <dbl>  <dbl>  <dbl> <dbl>  <dbl>  <dbl> <dbl>  <dbl>
#> 1 1      0     0.74 0.0965  0.643  1.24   1.24   0     0.74   1.06   0     0.74 
#> 2 1      0.25  2.84 3.77   -0.932 -0.496 -0.496  3.23 -0.387 -0.209  3.84 -1.00 
#> 3 1      0.57  6.57 6.08    0.491 -1.71  -1.71   5.78  0.788  0.318  6.78 -0.213
#> # … with 129 more rows, and 14 more variables: IWRES <dbl>, CPRED <dbl>,
#> #   CRES <dbl>, CWRES <dbl>, eta.ka <dbl>, eta.cl <dbl>, eta.v <dbl>,
#> #   depot <dbl>, center <dbl>, ka <dbl>, cl <dbl>, v <dbl>, tad <dbl>,
#> #   dosenum <dbl>
…
#>  
#> 
#>   No correlations in between subject variability (BSV) matrix
#>   Full BSV covariance ($omega) or correlation ($omegaR; diagonals=SDs) 
#>   Distribution stats (mean/skewness/kurtosis/p-value) available in $shrink 
#>   Minimization message ($message):  
#>     false convergence (8) 
#>   In an ODE system, false convergence may mean "useless" evaluations were performed.
#>   See https://tinyurl.com/yyrrwkce
#>   It could also mean the convergence is poor, check results before accepting fit
#>   You may also try a good derivative free optimization:
#>     nlmixr(...,control=list(outerOpt="bobyqa"))
#> 
#> ── Fit Data (object is a modified tibble): ─────────────────────────────────────
#> # A tibble: 132 × 26
#>   ID     TIME    DV  EPRED   ERES   NPDE    NPD  PRED    RES   WRES IPRED   IRES
#>   <fct> <dbl> <dbl>  <dbl>  <dbl>  <dbl>  <dbl> <dbl>  <dbl>  <dbl> <dbl>  <dbl>
#> 1 1      0     0.74 0.0968  0.643  1.24   1.24   0     0.74   1.06   0     0.74 
#> 2 1      0.25  2.84 3.82   -0.979 -0.468 -0.468  3.28 -0.438 -0.235  3.85 -1.01 
#> 3 1      0.57  6.57 6.13    0.437 -1.75  -1.75   5.85  0.722  0.293  6.79 -0.215
#> # … with 129 more rows, and 14 more variables: IWRES <dbl>, CPRED <dbl>,
#> #   CRES <dbl>, CWRES <dbl>, eta.ka <dbl>, eta.cl <dbl>, eta.v <dbl>,
#> #   depot <dbl>, center <dbl>, ka <dbl>, cl <dbl>, v <dbl>, tad <dbl>,
#> #   dosenum <dbl>
…
#> tka       Log Ka 0.432  0.165 38.2       1.54 (1.11, 2.13)                     
#> tcl       Log Cl 0.991 0.0762 7.69       2.69 (2.32, 3.13)     30.3      7.79% 
#> tv         log V  3.48 0.0476 1.37       32.5 (29.6, 35.6)     15.4      7.17% 
#> add.sd            1.02                                1.02                     
#>  
#>   Covariance Type ($covMethod): r,s
#>   Fixed parameter correlations in $cor
#>   No correlations in between subject variability (BSV) matrix
#>   Full BSV covariance ($omega) or correlation ($omegaR; diagonals=SDs) 
#>   Distribution stats (mean/skewness/kurtosis/p-value) available in $shrink 
#>   Minimization message ($message):  
#>     relative convergence (4) 
#> 
#> ── Fit Data (object is a modified tibble): ─────────────────────────────────────
#> # A tibble: 132 × 25
#>   ID     TIME    DV EPRED   ERES   NPDE    NPD  PRED    RES   WRES IPRED   IRES
#>   <fct> <dbl> <dbl> <dbl>  <dbl>  <dbl>  <dbl> <dbl>  <dbl>  <dbl> <dbl>  <dbl>
#> 1 1      0     0.74 0.142  0.598  0.915  0.915  0     0.74   0.726  0     0.74 
#> 2 1      0.25  2.84 3.23  -0.394 -0.573 -0.573  3.12 -0.276 -0.246  3.57 -0.730
#> 3 1      0.57  6.57 5.69   0.878 -0.449 -0.449  5.61  0.963  0.730  6.45  0.122
#> # … with 129 more rows, and 13 more variables: IWRES <dbl>, CPRED <dbl>,
#> #   CRES <dbl>, CWRES <dbl>, eta.cl <dbl>, eta.v <dbl>, depot <dbl>,
#> #   center <dbl>, ka <dbl>, cl <dbl>, v <dbl>, tad <dbl>, dosenum <dbl>
…
#>  
#> 
#>   No correlations in between subject variability (BSV) matrix
#>   Full BSV covariance ($omega) or correlation ($omegaR; diagonals=SDs) 
#>   Distribution stats (mean/skewness/kurtosis/p-value) available in $shrink 
#>   Minimization message ($message):  
#>     false convergence (8) 
#>   In an ODE system, false convergence may mean "useless" evaluations were performed.
#>   See https://tinyurl.com/yyrrwkce
#>   It could also mean the convergence is poor, check results before accepting fit
#>   You may also try a good derivative free optimization:
#>     nlmixr(...,control=list(outerOpt="bobyqa"))
#> 
#> ── Fit Data (object is a modified tibble): ─────────────────────────────────────
#> # A tibble: 132 × 26
#>   ID     TIME    DV  EPRED   ERES   NPDE    NPD  PRED    RES   WRES IPRED   IRES
#>   <fct> <dbl> <dbl>  <dbl>  <dbl>  <dbl>  <dbl> <dbl>  <dbl>  <dbl> <dbl>  <dbl>
#> 1 1      0     0.74 0.0971  0.643  1.45   1.45   0     0.74   1.06   0     0.74 
#> 2 1      0.25  2.84 3.63   -0.792 -0.696 -0.696  3.28 -0.442 -0.235  3.85 -1.01 
#> 3 1      0.57  6.57 5.90    0.668 -1.83  -1.83   5.85  0.716  0.288  6.79 -0.215
#> # … with 129 more rows, and 14 more variables: IWRES <dbl>, CPRED <dbl>,
#> #   CRES <dbl>, CWRES <dbl>, eta.cl <dbl>, eta.v <dbl>, bsv.ka <dbl>,
#> #   depot <dbl>, center <dbl>, ka <dbl>, cl <dbl>, v <dbl>, tad <dbl>,
#> #   dosenum <dbl>
…
#>  
#> 
#>   No correlations in between subject variability (BSV) matrix
#>   Full BSV covariance ($omega) or correlation ($omegaR; diagonals=SDs) 
#>   Distribution stats (mean/skewness/kurtosis/p-value) available in $shrink 
#>   Minimization message ($message):  
#>     false convergence (8) 
#>   In an ODE system, false convergence may mean "useless" evaluations were performed.
#>   See https://tinyurl.com/yyrrwkce
#>   It could also mean the convergence is poor, check results before accepting fit
#>   You may also try a good derivative free optimization:
#>     nlmixr(...,control=list(outerOpt="bobyqa"))
#> 
#> ── Fit Data (object is a modified tibble): ─────────────────────────────────────
#> # A tibble: 132 × 26
#>   ID     TIME    DV  EPRED   ERES   NPDE    NPD  PRED    RES   WRES IPRED   IRES
#>   <fct> <dbl> <dbl>  <dbl>  <dbl>  <dbl>  <dbl> <dbl>  <dbl>  <dbl> <dbl>  <dbl>
#> 1 1      0     0.74 0.0965  0.643  1.26   1.26   0     0.74   1.06   0     0.74 
#> 2 1      0.25  2.84 3.90   -1.06  -0.394 -0.394  3.35 -0.514 -0.269  3.85 -1.01 
#> 3 1      0.57  6.57 6.22    0.349 -1.79  -1.79   5.95  0.621  0.249  6.79 -0.219
#> # … with 129 more rows, and 14 more variables: IWRES <dbl>, CPRED <dbl>,
#> #   CRES <dbl>, CWRES <dbl>, eta.ka <dbl>, eta.cl <dbl>, eta.v <dbl>,
#> #   depot <dbl>, center <dbl>, ka <dbl>, cl <dbl>, v <dbl>, tad <dbl>,
#> #   dosenum <dbl>
…
#>  
#> 
#>   No correlations in between subject variability (BSV) matrix
#>   Full BSV covariance ($omega) or correlation ($omegaR; diagonals=SDs) 
#>   Distribution stats (mean/skewness/kurtosis/p-value) available in $shrink 
#>   Minimization message ($message):  
#>     false convergence (8) 
#>   In an ODE system, false convergence may mean "useless" evaluations were performed.
#>   See https://tinyurl.com/yyrrwkce
#>   It could also mean the convergence is poor, check results before accepting fit
#>   You may also try a good derivative free optimization:
#>     nlmixr(...,control=list(outerOpt="bobyqa"))
#> 
#> ── Fit Data (object is a modified tibble): ─────────────────────────────────────
#> # A tibble: 132 × 26
#>   ID     TIME    DV  EPRED   ERES   NPDE    NPD  PRED    RES   WRES IPRED   IRES
#>   <fct> <dbl> <dbl>  <dbl>  <dbl>  <dbl>  <dbl> <dbl>  <dbl>  <dbl> <dbl>  <dbl>
#> 1 1      0     0.74 0.0389  0.701  2.47   2.47   0     0.74   2.64   0     0.74 
#> 2 1      0.25  2.84 3.60   -0.755 -1.07  -1.07   3.09 -0.252 -0.146  3.47 -0.630
#> 3 1      0.57  6.57 5.85    0.716 -0.515 -0.515  5.59  0.982  0.401  6.24  0.328
#> # … with 129 more rows, and 14 more variables: IWRES <dbl>, CPRED <dbl>,
#> #   CRES <dbl>, CWRES <dbl>, eta.ka <dbl>, eta.cl <dbl>, eta.v <dbl>,
#> #   depot <dbl>, center <dbl>, ka <dbl>, cl <dbl>, v <dbl>, tad <dbl>,
#> #   dosenum <dbl>
…
