Working with multiple endpoints • nlmixr
…
#>         0.0532         -0.00177          0.00604           0.0201          -0.0533   
#>   cor:tec50,tcl   cor:tkout,tcl     cor:te0,tcl    cor:temax,tv    cor:tec50,tv 
#>         -0.127          -0.0225          -0.0101           0.0883            0.105   
#>    cor:tkout,tv      cor:te0,tv cor:tec50,temax cor:tkout,temax   cor:te0,temax 
#>         0.0559           0.0142            0.732          -0.758         -0.0227   
#> cor:tkout,tec50   cor:te0,tec50   cor:te0,tkout 
#>         -0.470         -0.0652            0.110   
#>  
#> 
#>   No correlations in between subject variability (BSV) matrix
#>   Full BSV covariance ($omega) or correlation ($omegaR; diagonals=SDs) 
#>   Distribution stats (mean/skewness/kurtosis/p-value) available in $shrink 
#> 
#> ── Fit Data (object is a modified tibble): ─────────────────────────────────────
#> # A tibble: 483 × 42
#>   ID     TIME CMT      DV EPRED  ERES   NPDE    NPD  PRED   RES   WRES IPRED
#>   <fct> <dbl> <fct> <dbl> <dbl> <dbl>  <dbl>  <dbl> <dbl> <dbl>  <dbl> <dbl>
#> 1 1       0.5 cp      0    1.92 -1.92  0.583  0.583  1.50 -1.50 -1.05  0.501
#> 2 1       1   cp      1.9  4.61 -2.71  0.314  0.314  4.17 -2.27 -0.801 1.62 
#> 3 1       2   cp      3.3  8.45 -5.15 -1.53  -1.53   8.65 -5.35 -1.42  4.31 
#> # … with 480 more rows, and 30 more variables: IRES <dbl>, IWRES <dbl>,
#> #   CPRED <dbl>, CRES <dbl>, CWRES <dbl>, eta.ktr <dbl>, eta.ka <dbl>,
#> #   eta.cl <dbl>, eta.v <dbl>, eta.emax <dbl>, eta.ec50 <dbl>, eta.kout <dbl>,
#> #   eta.e0 <dbl>, depot <dbl>, gut <dbl>, center <dbl>, effect <dbl>,
#> #   ktr <dbl>, ka <dbl>, cl <dbl>, v <dbl>, emax <dbl>, ec50 <dbl>, kout <dbl>,
#> #   e0 <dbl>, DCP <dbl>, PD <dbl>, kin <dbl>, tad <dbl>, dosenum <dbl>
…
#>  
#> 
#>   No correlations in between subject variability (BSV) matrix
#>   Full BSV covariance ($omega) or correlation ($omegaR; diagonals=SDs) 
#>   Distribution stats (mean/skewness/kurtosis/p-value) available in $shrink 
#>   Minimization message ($message):  
#>     false convergence (8) 
#>   In an ODE system, false convergence may mean "useless" evaluations were performed.
#>   See https://tinyurl.com/yyrrwkce
#>   It could also mean the convergence is poor, check results before accepting fit
#>   You may also try a good derivative free optimization:
#>     nlmixr(...,control=list(outerOpt="bobyqa"))
#> 
#> ── Fit Data (object is a modified tibble): ─────────────────────────────────────
#> # A tibble: 483 × 42
#>   ID     TIME CMT      DV EPRED  ERES  NPDE   NPD  PRED   RES   WRES IPRED
#>   <fct> <dbl> <fct> <dbl> <dbl> <dbl> <dbl> <dbl> <dbl> <dbl>  <dbl> <dbl>
#> 1 1       0.5 cp      0    1.69 -1.69 -2.94 -2.94  1.16 -1.16 -0.987 0.441
#> 2 1       1   cp      1.9  3.96 -2.06  2.13  2.13  3.36 -1.46 -0.515 1.45 
#> 3 1       2   cp      3.3  7.22 -3.92 -1.30 -1.30  7.45 -4.15 -0.955 3.98 
#> # … with 480 more rows, and 30 more variables: IRES <dbl>, IWRES <dbl>,
#> #   CPRED <dbl>, CRES <dbl>, CWRES <dbl>, eta.ktr <dbl>, eta.ka <dbl>,
#> #   eta.cl <dbl>, eta.v <dbl>, eta.emax <dbl>, eta.ec50 <dbl>, eta.kout <dbl>,
#> #   eta.e0 <dbl>, depot <dbl>, gut <dbl>, center <dbl>, effect <dbl>,
#> #   ktr <dbl>, ka <dbl>, cl <dbl>, v <dbl>, emax <dbl>, ec50 <dbl>, kout <dbl>,
#> #   e0 <dbl>, DCP <dbl>, PD <dbl>, kin <dbl>, tad <dbl>, dosenum <dbl>
…
