Running PK models with nlmixr • nlmixr
…
#>  
#>   Covariance Type ($covMethod): r,s
#>   Some strong fixed parameter correlations exist ($cor) :
#>     cor:tcl,tka  cor:tv,tka  cor:tv,tcl 
#>      0.158        0.422       0.744  
#>  
#> 
#>   No correlations in between subject variability (BSV) matrix
#>   Full BSV covariance ($omega) or correlation ($omegaR; diagonals=SDs) 
#>   Distribution stats (mean/skewness/kurtosis/p-value) available in $shrink 
#>   Minimization message ($message):  
#>     relative convergence (4) 
#> 
#> ── Fit Data (object is a modified tibble): ─────────────────────────────────────
#> # A tibble: 132 × 20
#>   ID     TIME    DV     PRED    RES   WRES IPRED   IRES  IWRES     CPRED   CRES
#>   <fct> <dbl> <dbl>    <dbl>  <dbl>  <dbl> <dbl>  <dbl>  <dbl>     <dbl>  <dbl>
#> 1 1      0     0.74 1.79e-15  0.740  1.07   0     0.74   1.07  -5.61e-16  0.740
#> 2 1      0.25  2.84 3.26e+ 0 -0.423 -0.225  3.85 -1.01  -1.45   3.22e+ 0 -0.379
#> 3 1      0.57  6.57 5.83e+ 0  0.740  0.297  6.78 -0.215 -0.309  5.77e+ 0  0.795
#> # … with 129 more rows, and 9 more variables: CWRES <dbl>, eta.ka <dbl>,
#> #   eta.cl <dbl>, eta.v <dbl>, ka <dbl>, cl <dbl>, v <dbl>, tad <dbl>,
#> #   dosenum <dbl>
…
#> 
#>        Parameter  Est.     SE %RSE Back-transformed(95%CI) BSV(CV%) Shrink(SD)%
#> tka       Log Ka 0.452  0.197 43.5       1.57 (1.07, 2.31)     72.0     0.361% 
#> tcl       Log Cl  1.02 0.0836 8.22       2.77 (2.35, 3.26)     27.0      3.37% 
#> tv         Log V  3.45 0.0469 1.36       31.5 (28.7, 34.5)     14.0      9.96% 
#> add.sd           0.692                               0.692                     
#>  
#>   Covariance Type ($covMethod): linFim
#>   Fixed parameter correlations in $cor
#>   No correlations in between subject variability (BSV) matrix
#>   Full BSV covariance ($omega) or correlation ($omegaR; diagonals=SDs) 
#>   Distribution stats (mean/skewness/kurtosis/p-value) available in $shrink 
#> 
#> ── Fit Data (object is a modified tibble): ─────────────────────────────────────
#> # A tibble: 132 × 19
#>   ID     TIME    DV  PRED    RES IPRED   IRES  IWRES eta.ka eta.cl   eta.v    cp
#>   <fct> <dbl> <dbl> <dbl>  <dbl> <dbl>  <dbl>  <dbl>  <dbl>  <dbl>   <dbl> <dbl>
#> 1 1      0     0.74  0     0.74   0     0.74   1.07   0.104 -0.487 -0.0801  0   
#> 2 1      0.25  2.84  3.26 -0.425  3.86 -1.02  -1.48   0.104 -0.487 -0.0801  3.86
#> 3 1      0.57  6.57  5.85  0.724  6.81 -0.235 -0.340  0.104 -0.487 -0.0801  6.81
#> # … with 129 more rows, and 7 more variables: depot <dbl>, center <dbl>,
#> #   ka <dbl>, cl <dbl>, v <dbl>, tad <dbl>, dosenum <dbl>
…
#> 
#>        Parameter  Est.     SE %RSE Back-transformed(95%CI) BSV(CV%) Shrink(SD)%
#> tka       Log Ka 0.484  0.187 38.7       1.62 (1.12, 2.34)     67.6    -0.748% 
#> tcl       Log Cl 0.996 0.0865 8.68       2.71 (2.28, 3.21)     27.5      7.91% 
#> tv         Log V  3.48 0.0467 1.34       32.3 (29.5, 35.4)     14.1   -0.0171% 
#> add.sd           0.674                               0.674                     
#>  
#>   Covariance Type ($covMethod): nlme
#>   Fixed parameter correlations in $cor
#>   No correlations in between subject variability (BSV) matrix
#>   Full BSV covariance ($omega) or correlation ($omegaR; diagonals=SDs) 
#>   Distribution stats (mean/skewness/kurtosis/p-value) available in $shrink 
#> 
#> ── Fit Data (object is a modified tibble): ─────────────────────────────────────
#> # A tibble: 132 × 22
#>   ID     TIME    DV  PRED    RES   WRES IPRED   IRES  IWRES CPRED   CRES  CWRES
#>   <fct> <dbl> <dbl> <dbl>  <dbl>  <dbl> <dbl>  <dbl>  <dbl> <dbl>  <dbl>  <dbl>
#> 1 1      0     0.74  0     0.74   1.10   0     0.74   1.10   0     0.74   1.10 
#> 2 1      0.25  2.84  3.26 -0.425 -0.234  3.94 -1.10  -1.63   3.21 -0.367 -0.175
#> 3 1      0.57  6.57  5.81  0.758  0.316  6.87 -0.303 -0.450  5.75  0.823  0.310
#> # … with 129 more rows, and 10 more variables: eta.ka <dbl>, eta.cl <dbl>,
#> #   eta.v <dbl>, depot <dbl>, center <dbl>, ka <dbl>, cl <dbl>, v <dbl>,
#> #   tad <dbl>, dosenum <dbl>
…
#>  
#>   Covariance Type ($covMethod): r,s
#>   Some strong fixed parameter correlations exist ($cor) :
#>     cor:tcl,tka  cor:tv,tka  cor:tv,tcl 
#>      0.158        0.422       0.744  
#>  
#> 
#>   No correlations in between subject variability (BSV) matrix
#>   Full BSV covariance ($omega) or correlation ($omegaR; diagonals=SDs) 
#>   Distribution stats (mean/skewness/kurtosis/p-value) available in $shrink 
#>   Minimization message ($message):  
#>     relative convergence (4) 
#> 
#> ── Fit Data (object is a modified tibble): ─────────────────────────────────────
#> # A tibble: 132 × 20
#>   ID     TIME    DV     PRED    RES   WRES IPRED   IRES  IWRES     CPRED   CRES
#>   <fct> <dbl> <dbl>    <dbl>  <dbl>  <dbl> <dbl>  <dbl>  <dbl>     <dbl>  <dbl>
#> 1 1      0     0.74 1.79e-15  0.740  1.07   0     0.74   1.07  -5.61e-16  0.740
#> 2 1      0.25  2.84 3.26e+ 0 -0.423 -0.225  3.85 -1.01  -1.45   3.22e+ 0 -0.379
#> 3 1      0.57  6.57 5.83e+ 0  0.740  0.297  6.78 -0.215 -0.309  5.77e+ 0  0.795
#> # … with 129 more rows, and 9 more variables: CWRES <dbl>, eta.ka <dbl>,
#> #   eta.cl <dbl>, eta.v <dbl>, ka <dbl>, cl <dbl>, v <dbl>, tad <dbl>,
#> #   dosenum <dbl>
…
