xgxr nlmixr and ggPmx integration • nlmixr
…
0
100
8
1
1

ev$add.sampling(seq(0, 8, length.out=50))
print(ev)
#> ────────────────────────── EventTable with 51 records ──────────────────────────
#> 
#>    1 dosing records (see $get.dosing(); add with add.dosing or et)
#>    50 observation times (see $get.sampling(); add with add.sampling or et)
#> ── First part of : ─────────────────────────────────────────────────────────────
#> # A tibble: 51 x 5
#>     time   amt    ii evid             ss
#>    <dbl> <dbl> <dbl> <evid>        <int>
#>  1 0        NA    NA 0:Observation    NA
#>  2 0       100     8 1:Dose (Add)      1
#>  3 0.163    NA    NA 0:Observation    NA
#>  4 0.327    NA    NA 0:Observation    NA
#>  5 0.490    NA    NA 0:Observation    NA
#>  6 0.653    NA    NA 0:Observation    NA
#>  7 0.816    NA    NA 0:Observation    NA
#>  8 0.980    NA    NA 0:Observation    NA
#>  9 1.14     NA    NA 0:Observation    NA
#> 10 1.31     NA    NA 0:Observation    NA
#> # … with 41 more rows

A nlmixr model already includes information about the parameter estimates and can simulate without uncertainty in the population parameters or covariances, like what is done for a VPC.

If you wish to simulate 100 patients repeated by 100 different theoretical studies where you simulate from the uncertainty in the fixed parameter estimates and covariances you can very easily with nlmixr/RxODE:

set.seed(100)
sim1 <- simulate(cmt2fit.logn, events=ev, nSub=100, nStud=100)

print(sim1)
#> ▂▂▂▂▂▂▂▂▂▂▂▂▂▂▂▂▂▂▂▂▂▂▂▂▂▂▂▂▂▂ Solved RxODE object ▂▂▂▂▂▂▂▂▂▂▂▂▂▂▂▂▂▂▂▂▂▂▂▂▂▂▂▂▂
#> ── Parameters ($params): ───────────────────────────────────────────────────────
#> # A tibble: 10,000 x 9
#>    sim.id  eta.cl   lcl   eta.v    lv    lq   lvp eta.ka   lka
#>     <int>   <dbl> <dbl>   <dbl> <dbl> <dbl> <dbl>  <dbl> <dbl>
#>  1      1  0.464   2.02  0.126   1.78  2.83  4.72  0.210 -1.15
#>  2      2  0.0991  2.02 -0.0568  1.78  2.83  4.72 -0.364 -1.15
#>  3      3  0.752   2.02  0.0232  1.78  2.83  4.72  0.141 -1.15
#>  4      4 -0.521   2.02  0.196   1.78  2.83  4.72 -0.310 -1.15
#>  5      5  0.572   2.02 -1.08    1.78  2.83  4.72  0.290 -1.15
#>  6      6  0.302   2.02  0.0291  1.78  2.83  4.72 -0.709 -1.15
#>  7      7  0.263   2.02 -0.946   1.78  2.83  4.72 -1.24  -1.15
#>  8      8 -0.762   2.02  0.172   1.78  2.83  4.72 -0.542 -1.15
#>  9      9  0.222   2.02 -0.0113  1.78  2.83  4.72  0.780 -1.15
#> 10     10 -0.462   2.02 -0.597   1.78  2.83  4.72 -0.326 -1.15
#> # … with 9,990 more rows
#> ── Initial Conditions ($inits): ────────────────────────────────────────────────
#> named numeric(0)
#> 
#> Simulation with uncertainty in:
#> • parameters (sim1$thetaMat for changes)
#> • omega matrix (sim1$omegaList)
#> • sigma matrix (sim1$sigmaList)
#> 
#> ── First part of data (object): ────────────────────────────────────────────────
#> # A tibble: 500,000 x 4
#>   sim.id  time ipred   sim
#>    <int> <dbl> <dbl> <dbl>
#> 1      1 0     0.625 0.773
#> 2      1 0.163 1.28  1.37 
#> 3      1 0.327 1.56  1.62 
#> 4      1 0.490 1.66  1.55 
#> 5      1 0.653 1.68  2.05 
#> 6      1 0.816 1.66  0.784
#> # … with 499,994 more rows
…
